{
  "x-generator": "NSwag v13.20.0.0 (NJsonSchema v10.9.0.0 (Newtonsoft.Json v13.0.0.0))",
  "openapi": "3.0.0",
  "info": {
    "title": "Suzim.Backend",
    "version": "1.0.0"
  },
  "paths": {
    "/api/v1/account": {
      "put": {
        "tags": [
          "Account"
        ],
        "summary": "Зарегистрироваться",
        "operationId": "Account_Register",
        "parameters": [
          {
            "name": "username",
            "in": "query",
            "required": true,
            "description": "Имя пользователя",
            "schema": {
              "type": "string"
            },
            "x-position": 1
          },
          {
            "name": "password",
            "in": "query",
            "required": true,
            "description": "Пароль",
            "schema": {
              "type": "string"
            },
            "x-position": 2
          }
        ],
        "responses": {
          "200": {
            "description": "",
            "content": {
              "application/json": {
                "schema": {
                  "type": "string",
                  "nullable": true
                }
              }
            }
          }
        }
      },
      "post": {
        "tags": [
          "Account"
        ],
        "summary": "Залогиниться",
        "operationId": "Account_Login",
        "parameters": [
          {
            "name": "username",
            "in": "query",
            "required": true,
            "description": "Имя пользователя",
            "schema": {
              "type": "string"
            },
            "x-position": 1
          },
          {
            "name": "password",
            "in": "query",
            "required": true,
            "description": "Пароль",
            "schema": {
              "type": "string"
            },
            "x-position": 2
          }
        ],
        "responses": {
          "200": {
            "description": "",
            "content": {
              "application/json": {
                "schema": {
                  "type": "string",
                  "nullable": true
                }
              }
            }
          }
        }
      },
      "delete": {
        "tags": [
          "Account"
        ],
        "summary": "Разлогиниться",
        "operationId": "Account_Logout",
        "responses": {
          "200": {
            "description": "",
            "content": {
              "application/octet-stream": {
                "schema": {
                  "type": "string",
                  "format": "binary"
                }
              }
            }
          }
        }
      }
    },
    "/api/v1/customers": {
      "get": {
        "tags": [
          "Customer"
        ],
        "summary": "Получить всех заказчиков",
        "operationId": "GetCustomeres",
        "parameters": [
          {
            "name": "Limit",
            "in": "query",
            "schema": {
              "type": "integer",
              "format": "int32"
            }
          },
          {
            "name": "Offset",
            "in": "query",
            "schema": {
              "type": "integer",
              "format": "int32"
            }
          },
          {
            "name": "isOnlyActive",
            "in": "query",
            "required": true,
            "description": "Только активные записи",
            "schema": {
              "type": "boolean",
              "default": true
            },
            "x-position": 1
          }
        ],
        "responses": {
          "200": {
            "description": "Данные получены",
            "content": {
              "application/json": {
                "schema": {
                  "$ref": "#/components/schemas/PageResponseOfCustomerResponse"
                }
              }
            }
          },
          "400": {
            "description": "Ошибка валидации входных данных"
          }
        }
      },
      "post": {
        "tags": [
          "Customer"
        ],
        "summary": "Cоздать заказчика",
        "operationId": "CreateCustomer",
        "parameters": [
          {
            "name": "id",
            "in": "query",
            "required": true,
            "schema": {
              "type": "string",
              "format": "guid",
              "nullable": true
            },
            "x-position": 1
          }
        ],
        "requestBody": {
          "x-name": "request",
          "content": {
            "application/json": {
              "schema": {
                "$ref": "#/components/schemas/CustomerCreateRequest"
              }
            }
          },
          "x-position": 2
        },
        "responses": {
          "201": {
            "description": "Запись создана в БД"
          },
          "400": {
            "description": "Ошибка валидации входных данных"
          }
        }
      }
    },
    "/api/v1/customers/{id}": {
      "get": {
        "tags": [
          "Customer"
        ],
        "summary": "Получить заказчика по ИД",
        "operationId": "GetCustomerById",
        "parameters": [
          {
            "name": "id",
            "in": "path",
            "required": true,
            "schema": {
              "type": "string",
              "format": "guid"
            },
            "x-position": 1
          }
        ],
        "responses": {
          "200": {
            "description": "Данные получены",
            "content": {
              "application/json": {
                "schema": {
                  "$ref": "#/components/schemas/CustomerResponse"
                }
              }
            }
          },
          "400": {
            "description": "Ошибка валидации входных данных"
          },
          "404": {
            "description": "Запись не найдена в БД"
          }
        }
      },
      "put": {
        "tags": [
          "Customer"
        ],
        "summary": "Обновить заказчика",
        "operationId": "UpdateCustomer",
        "parameters": [
          {
            "name": "id",
            "in": "path",
            "required": true,
            "schema": {
              "type": "string",
              "format": "guid"
            },
            "x-position": 1
          }
        ],
        "requestBody": {
          "x-name": "model",
          "content": {
            "application/json": {
              "schema": {
                "$ref": "#/components/schemas/CustomerUpdateRequest"
              }
            }
          },
          "x-position": 2
        },
        "responses": {
          "200": {
            "description": "Данные обновлены",
            "content": {
              "application/json": {
                "schema": {
                  "$ref": "#/components/schemas/CustomerResponse"
                }
              }
            }
          },
          "400": {
            "description": "Ошибка валидации входных данных"
          },
          "404": {
            "description": "Запись не найдена в БД"
          }
        }
      },
      "delete": {
        "tags": [
          "Customer"
        ],
        "summary": "Пометить заказчика как удаленный",
        "operationId": "DeleteCustomer",
        "parameters": [
          {
            "name": "id",
            "in": "path",
            "required": true,
            "schema": {
              "type": "string",
              "format": "guid"
            },
            "x-position": 1
          }
        ],
        "responses": {
          "200": {
            "description": "Запись удалена"
          },
          "400": {
            "description": "Ошибка валидации входных данных"
          },
          "404": {
            "description": "Запись не найдена в БД"
          }
        }
      }
    },
    "/api/v1/orders": {
      "get": {
        "tags": [
          "Order"
        ],
        "summary": "Получить заказы",
        "operationId": "GetOrders",
        "parameters": [
          {
            "name": "Limit",
            "in": "query",
            "schema": {
              "type": "integer",
              "format": "int32"
            }
          },
          {
            "name": "Offset",
            "in": "query",
            "schema": {
              "type": "integer",
              "format": "int32"
            }
          },
          {
            "name": "isOnlyActive",
            "in": "query",
            "required": true,
            "description": "Только активные записи",
            "schema": {
              "type": "boolean",
              "default": true
            },
            "x-position": 1
          }
        ],
        "responses": {
          "200": {
            "description": "Данные получены",
            "content": {
              "application/json": {
                "schema": {
                  "$ref": "#/components/schemas/PageResponseOfOrderResponse"
                }
              }
            }
          },
          "400": {
            "description": "Ошибка валидации входных данных"
          }
        }
      },
      "post": {
        "tags": [
          "Order"
        ],
        "summary": "Cоздать заказ",
        "operationId": "CreateOrder",
        "parameters": [
          {
            "name": "id",
            "in": "query",
            "required": true,
            "schema": {
              "type": "string",
              "format": "guid",
              "nullable": true
            },
            "x-position": 1
          }
        ],
        "requestBody": {
          "x-name": "request",
          "content": {
            "application/json": {
              "schema": {
                "$ref": "#/components/schemas/OrderCreateRequest"
              }
            }
          },
          "x-position": 2
        },
        "responses": {
          "201": {
            "description": "Запись создана в БД"
          },
          "400": {
            "description": "Ошибка валидации входных данных"
          }
        }
      },
      "put": {
        "tags": [
          "Order"
        ],
        "summary": "Добавить товар к заказу",
        "operationId": "AddProduct",
        "parameters": [
          {
            "name": "orderId",
            "in": "query",
            "required": true,
            "schema": {
              "type": "string",
              "format": "guid"
            },
            "x-position": 1
          },
          {
            "name": "productId",
            "in": "query",
            "required": true,
            "schema": {
              "type": "string",
              "format": "guid"
            },
            "x-position": 2
          }
        ],
        "responses": {
          "200": {
            "description": "Товар добавлен к заказу"
          },
          "400": {
            "description": "Ошибка валидации входных данных"
          },
          "404": {
            "description": "Запись не найдена в БД"
          }
        }
      },
      "delete": {
        "tags": [
          "Order"
        ],
        "summary": "Удалить товар с заказа",
        "operationId": "RemoveProduct",
        "parameters": [
          {
            "name": "orderId",
            "in": "query",
            "required": true,
            "schema": {
              "type": "string",
              "format": "guid"
            },
            "x-position": 1
          },
          {
            "name": "productId",
            "in": "query",
            "required": true,
            "schema": {
              "type": "string",
              "format": "guid"
            },
            "x-position": 2
          }
        ],
        "responses": {
          "200": {
            "description": "Товар удалён с заказа"
          },
          "400": {
            "description": "Ошибка валидации входных данных"
          },
          "404": {
            "description": "Запись не найдена в БД"
          }
        }
      }
    },
    "/api/v1/orders/{id}": {
      "get": {
        "tags": [
          "Order"
        ],
        "summary": "Получить заказ по ИД",
        "operationId": "GetOrderById",
        "parameters": [
          {
            "name": "id",
            "in": "path",
            "required": true,
            "schema": {
              "type": "string",
              "format": "guid"
            },
            "x-position": 1
          }
        ],
        "responses": {
          "200": {
            "description": "Данные получены",
            "content": {
              "application/json": {
                "schema": {
                  "$ref": "#/components/schemas/OrderResponse"
                }
              }
            }
          },
          "400": {
            "description": "Ошибка валидации входных данных"
          },
          "404": {
            "description": "Запись не найдена в БД"
          }
        }
      },
      "put": {
        "tags": [
          "Order"
        ],
        "summary": "Обновить заказ",
        "operationId": "UpdateOrder",
        "parameters": [
          {
            "name": "id",
            "in": "path",
            "required": true,
            "schema": {
              "type": "string",
              "format": "guid"
            },
            "x-position": 1
          }
        ],
        "requestBody": {
          "x-name": "model",
          "content": {
            "application/json": {
              "schema": {
                "$ref": "#/components/schemas/OrderUpdateRequest"
              }
            }
          },
          "x-position": 2
        },
        "responses": {
          "200": {
            "description": "Данные обновлены",
            "content": {
              "application/json": {
                "schema": {
                  "$ref": "#/components/schemas/OrderResponse"
                }
              }
            }
          },
          "400": {
            "description": "Ошибка валидации входных данных"
          },
          "404": {
            "description": "Запись не найдена в БД"
          }
        }
      },
      "delete": {
        "tags": [
          "Order"
        ],
        "summary": "Пометить заказ как удаленный",
        "operationId": "DeleteOrder",
        "parameters": [
          {
            "name": "id",
            "in": "path",
            "required": true,
            "schema": {
              "type": "string",
              "format": "guid"
            },
            "x-position": 1
          }
        ],
        "responses": {
          "200": {
            "description": "Запись удалена"
          },
          "400": {
            "description": "Ошибка валидации входных данных"
          },
          "404": {
            "description": "Запись не найдена в БД"
          }
        }
      }
    },
    "/api/v1/orders/excel": {
      "post": {
        "tags": [
          "Order"
        ],
        "summary": "Получить эксель отчёт",
        "operationId": "Order_DownloadExcelReport",
        "parameters": [
          {
            "name": "StartUtc",
            "in": "query",
            "schema": {
              "type": "string",
              "format": "date-time"
            }
          },
          {
            "name": "EncUtc",
            "in": "query",
            "schema": {
              "type": "string",
              "format": "date-time"
            }
          },
          {
            "name": "CustomerId",
            "in": "query",
            "schema": {
              "type": "string",
              "format": "guid",
              "nullable": true
            }
          },
          {
            "name": "IsOnlyActive",
            "in": "query",
            "schema": {
              "type": "boolean"
            }
          }
        ],
        "responses": {
          "200": {
            "description": "",
            "content": {
              "application/octet-stream": {
                "schema": {
                  "type": "string",
                  "format": "binary"
                }
              }
            }
          }
        }
      }
    },
    "/api/v1/payment-methods": {
      "get": {
        "tags": [
          "PaymentMethod"
        ],
        "summary": "Получить все методы оплаты",
        "operationId": "GetPaymentMethods",
        "parameters": [
          {
            "name": "Limit",
            "in": "query",
            "schema": {
              "type": "integer",
              "format": "int32"
            }
          },
          {
            "name": "Offset",
            "in": "query",
            "schema": {
              "type": "integer",
              "format": "int32"
            }
          },
          {
            "name": "isOnlyActive",
            "in": "query",
            "required": true,
            "description": "Только активные записи",
            "schema": {
              "type": "boolean",
              "default": true
            },
            "x-position": 1
          }
        ],
        "responses": {
          "200": {
            "description": "Данные получены",
            "content": {
              "application/json": {
                "schema": {
                  "$ref": "#/components/schemas/PageResponseOfPaymentMethodResponse"
                }
              }
            }
          },
          "400": {
            "description": "Ошибка валидации входных данных"
          }
        }
      },
      "post": {
        "tags": [
          "PaymentMethod"
        ],
        "summary": "Cоздать метод оплаты",
        "operationId": "CreatePaymentMethod",
        "parameters": [
          {
            "name": "id",
            "in": "query",
            "required": true,
            "schema": {
              "type": "string",
              "format": "guid",
              "nullable": true
            },
            "x-position": 1
          }
        ],
        "requestBody": {
          "x-name": "request",
          "content": {
            "application/json": {
              "schema": {
                "$ref": "#/components/schemas/PaymentMethodCreateRequest"
              }
            }
          },
          "x-position": 2
        },
        "responses": {
          "201": {
            "description": "Запись создана в БД"
          },
          "400": {
            "description": "Ошибка валидации входных данных"
          }
        }
      }
    },
    "/api/v1/payment-methods/{id}": {
      "get": {
        "tags": [
          "PaymentMethod"
        ],
        "summary": "Получить метод оплаты по ИД",
        "operationId": "GetPaymentMethodById",
        "parameters": [
          {
            "name": "id",
            "in": "path",
            "required": true,
            "schema": {
              "type": "string",
              "format": "guid"
            },
            "x-position": 1
          }
        ],
        "responses": {
          "200": {
            "description": "Данные получены",
            "content": {
              "application/json": {
                "schema": {
                  "$ref": "#/components/schemas/PaymentMethodResponse"
                }
              }
            }
          },
          "400": {
            "description": "Ошибка валидации входных данных"
          },
          "404": {
            "description": "Запись не найдена в БД"
          }
        }
      },
      "put": {
        "tags": [
          "PaymentMethod"
        ],
        "summary": "Обновить метод оплаты",
        "operationId": "UpdatePaymentMethod",
        "parameters": [
          {
            "name": "id",
            "in": "path",
            "required": true,
            "schema": {
              "type": "string",
              "format": "guid"
            },
            "x-position": 1
          }
        ],
        "requestBody": {
          "x-name": "model",
          "content": {
            "application/json": {
              "schema": {
                "$ref": "#/components/schemas/PaymentMethodUpdateRequest"
              }
            }
          },
          "x-position": 2
        },
        "responses": {
          "200": {
            "description": "Данные обновлены",
            "content": {
              "application/json": {
                "schema": {
                  "$ref": "#/components/schemas/PaymentMethodResponse"
                }
              }
            }
          },
          "400": {
            "description": "Ошибка валидации входных данных"
          },
          "404": {
            "description": "Запись не найдена в БД"
          }
        }
      },
      "delete": {
        "tags": [
          "PaymentMethod"
        ],
        "summary": "Пометить метод оплаты как удаленный",
        "operationId": "DeletePaymentMethod",
        "parameters": [
          {
            "name": "id",
            "in": "path",
            "required": true,
            "schema": {
              "type": "string",
              "format": "guid"
            },
            "x-position": 1
          }
        ],
        "responses": {
          "200": {
            "description": "Запись удалена"
          },
          "400": {
            "description": "Ошибка валидации входных данных"
          },
          "404": {
            "description": "Запись не найдена в БД"
          }
        }
      }
    },
    "/api/v1/products": {
      "get": {
        "tags": [
          "Product"
        ],
        "summary": "Получить все товары",
        "operationId": "GetProducts",
        "parameters": [
          {
            "name": "Limit",
            "in": "query",
            "schema": {
              "type": "integer",
              "format": "int32"
            }
          },
          {
            "name": "Offset",
            "in": "query",
            "schema": {
              "type": "integer",
              "format": "int32"
            }
          },
          {
            "name": "isOnlyActive",
            "in": "query",
            "required": true,
            "description": "Только активные записи",
            "schema": {
              "type": "boolean",
              "default": true
            },
            "x-position": 1
          }
        ],
        "responses": {
          "200": {
            "description": "Данные получены",
            "content": {
              "application/json": {
                "schema": {
                  "$ref": "#/components/schemas/PageResponseOfProductResponse"
                }
              }
            }
          },
          "400": {
            "description": "Ошибка валидации входных данных"
          }
        }
      },
      "post": {
        "tags": [
          "Product"
        ],
        "summary": "Cоздать товар",
        "operationId": "CreateProduct",
        "parameters": [
          {
            "name": "id",
            "in": "query",
            "required": true,
            "schema": {
              "type": "string",
              "format": "guid",
              "nullable": true
            },
            "x-position": 1
          }
        ],
        "requestBody": {
          "x-name": "request",
          "content": {
            "application/json": {
              "schema": {
                "$ref": "#/components/schemas/ProductCreateRequest"
              }
            }
          },
          "x-position": 2
        },
        "responses": {
          "201": {
            "description": "Запись создана в БД"
          },
          "400": {
            "description": "Ошибка валидации входных данных"
          }
        }
      }
    },
    "/api/v1/products/{id}": {
      "get": {
        "tags": [
          "Product"
        ],
        "summary": "Получить товар по ИД",
        "operationId": "GetProductById",
        "parameters": [
          {
            "name": "id",
            "in": "path",
            "required": true,
            "schema": {
              "type": "string",
              "format": "guid"
            },
            "x-position": 1
          }
        ],
        "responses": {
          "200": {
            "description": "Данные получены",
            "content": {
              "application/json": {
                "schema": {
                  "$ref": "#/components/schemas/ProductResponse"
                }
              }
            }
          },
          "400": {
            "description": "Ошибка валидации входных данных"
          },
          "404": {
            "description": "Запись не найдена в БД"
          }
        }
      },
      "put": {
        "tags": [
          "Product"
        ],
        "summary": "Обновить товар",
        "operationId": "UpdateProduct",
        "parameters": [
          {
            "name": "id",
            "in": "path",
            "required": true,
            "schema": {
              "type": "string",
              "format": "guid"
            },
            "x-position": 1
          }
        ],
        "requestBody": {
          "x-name": "model",
          "content": {
            "application/json": {
              "schema": {
                "$ref": "#/components/schemas/ProductUpdateRequest"
              }
            }
          },
          "x-position": 2
        },
        "responses": {
          "200": {
            "description": "Данные обновлены",
            "content": {
              "application/json": {
                "schema": {
                  "$ref": "#/components/schemas/ProductResponse"
                }
              }
            }
          },
          "400": {
            "description": "Ошибка валидации входных данных"
          },
          "404": {
            "description": "Запись не найдена в БД"
          }
        }
      },
      "delete": {
        "tags": [
          "Product"
        ],
        "summary": "Пометить товар как удаленный",
        "operationId": "DeleteProduct",
        "parameters": [
          {
            "name": "id",
            "in": "path",
            "required": true,
            "schema": {
              "type": "string",
              "format": "guid"
            },
            "x-position": 1
          }
        ],
        "responses": {
          "200": {
            "description": "Запись удалена"
          },
          "400": {
            "description": "Ошибка валидации входных данных"
          },
          "404": {
            "description": "Запись не найдена в БД"
          }
        }
      }
    },
    "/api/v1/products/favourite": {
      "post": {
        "tags": [
          "Product"
        ],
        "summary": "Добавить товар в избранное",
        "operationId": "AddProductToFavourite",
        "parameters": [
          {
            "name": "name",
            "in": "query",
            "required": true,
            "description": "Наименования продукта",
            "schema": {
              "type": "string"
            },
            "x-position": 1
          },
          {
            "name": "price",
            "in": "query",
            "required": true,
            "description": "Цена продукта",
            "schema": {
              "type": "number",
              "format": "decimal"
            },
            "x-position": 2
          }
        ],
        "responses": {
          "201": {
            "description": "Запись добавлена"
          },
          "400": {
            "description": "Ошибка валидации входных данных"
          }
        }
      }
    }
  },
  "components": {
    "schemas": {
      "PageResponseOfCustomerResponse": {
        "type": "object",
        "additionalProperties": false,
        "properties": {
          "Items": {
            "type": "array",
            "items": {
              "$ref": "#/components/schemas/CustomerResponse"
            }
          },
          "Total": {
            "type": "integer",
            "format": "int32"
          }
        }
      },
      "CustomerResponse": {
        "type": "object",
        "additionalProperties": false,
        "properties": {
          "Id": {
            "type": "string",
            "format": "guid",
            "nullable": true
          },
          "Surname": {
            "type": "string",
            "nullable": true
          },
          "Name": {
            "type": "string",
            "nullable": true
          },
          "Patronymic": {
            "type": "string",
            "nullable": true
          },
          "PhoneNumber": {
            "type": "string",
            "nullable": true
          },
          "Email": {
            "type": "string",
            "nullable": true
          },
          "CreatedAt": {
            "type": "string",
            "format": "date-time",
            "nullable": true
          },
          "ModifiedAt": {
            "type": "string",
            "format": "date-time",
            "nullable": true
          },
          "DeletedAt": {
            "type": "string",
            "format": "date-time",
            "nullable": true
          }
        }
      },
      "CustomerCreateRequest": {
        "type": "object",
        "additionalProperties": false,
        "properties": {
          "Surname": {
            "type": "string",
            "nullable": true
          },
          "Name": {
            "type": "string",
            "nullable": true
          },
          "Patronymic": {
            "type": "string",
            "nullable": true
          },
          "PhoneNumber": {
            "type": "string",
            "nullable": true
          },
          "Email": {
            "type": "string",
            "nullable": true
          }
        }
      },
      "CustomerUpdateRequest": {
        "type": "object",
        "additionalProperties": false,
        "properties": {
          "Surname": {
            "type": "string",
            "nullable": true
          },
          "Name": {
            "type": "string",
            "nullable": true
          },
          "Patronymic": {
            "type": "string",
            "nullable": true
          },
          "PhoneNumber": {
            "type": "string",
            "nullable": true
          },
          "Email": {
            "type": "string",
            "nullable": true
          }
        }
      },
      "PageResponseOfOrderResponse": {
        "type": "object",
        "additionalProperties": false,
        "properties": {
          "Items": {
            "type": "array",
            "items": {
              "$ref": "#/components/schemas/OrderResponse"
            }
          },
          "Total": {
            "type": "integer",
            "format": "int32"
          }
        }
      },
      "OrderResponse": {
        "type": "object",
        "additionalProperties": false,
        "properties": {
          "Id": {
            "type": "string",
            "format": "guid",
            "nullable": true
          },
          "Number": {
            "type": "string",
            "nullable": true
          },
          "Status": {
            "$ref": "#/components/schemas/OrderStatus"
          },
          "Address": {
            "type": "string",
            "nullable": true
          },
          "Customer": {
            "nullable": true,
            "oneOf": [
              {
                "$ref": "#/components/schemas/CustomerResponse"
              }
            ]
          },
          "PaymentMethod": {
            "nullable": true,
            "oneOf": [
              {
                "$ref": "#/components/schemas/PaymentMethodResponse"
              }
            ]
          },
          "Products": {
            "type": "array",
            "items": {
              "$ref": "#/components/schemas/ProductResponse"
            }
          },
          "CreatedAt": {
            "type": "string",
            "format": "date-time",
            "nullable": true
          },
          "ModifiedAt": {
            "type": "string",
            "format": "date-time",
            "nullable": true
          },
          "DeletedAt": {
            "type": "string",
            "format": "date-time",
            "nullable": true
          }
        }
      },
      "OrderStatus": {
        "type": "integer",
        "description": "100 = AwaitingPayment\n101 = Created\n102 = InAssembly\n200 = TransferredToDelivery\n201 = OnTheWay\n202 = AtTheCourier\n203 = AwaitingReceipt\n300 = Delivered\n301 = Received\n400 = Canceled",
        "x-enumNames": [
          "AwaitingPayment",
          "Created",
          "InAssembly",
          "TransferredToDelivery",
          "OnTheWay",
          "AtTheCourier",
          "AwaitingReceipt",
          "Delivered",
          "Received",
          "Canceled"
        ],
        "enum": [
          100,
          101,
          102,
          200,
          201,
          202,
          203,
          300,
          301,
          400
        ]
      },
      "PaymentMethodResponse": {
        "type": "object",
        "additionalProperties": false,
        "properties": {
          "Id": {
            "type": "string",
            "format": "guid",
            "nullable": true
          },
          "Name": {
            "type": "string",
            "nullable": true
          },
          "CreatedAt": {
            "type": "string",
            "format": "date-time",
            "nullable": true
          },
          "ModifiedAt": {
            "type": "string",
            "format": "date-time",
            "nullable": true
          },
          "DeletedAt": {
            "type": "string",
            "format": "date-time",
            "nullable": true
          }
        }
      },
      "ProductResponse": {
        "type": "object",
        "additionalProperties": false,
        "properties": {
          "Id": {
            "type": "string",
            "format": "guid",
            "nullable": true
          },
          "Name": {
            "type": "string",
            "nullable": true
          },
          "Price": {
            "type": "number",
            "format": "decimal",
            "nullable": true
          },
          "Description": {
            "type": "string",
            "nullable": true
          },
          "CreatedAt": {
            "type": "string",
            "format": "date-time",
            "nullable": true
          },
          "ModifiedAt": {
            "type": "string",
            "format": "date-time",
            "nullable": true
          },
          "DeletedAt": {
            "type": "string",
            "format": "date-time",
            "nullable": true
          }
        }
      },
      "OrderCreateRequest": {
        "type": "object",
        "additionalProperties": false,
        "properties": {
          "Number": {
            "type": "string",
            "nullable": true
          },
          "Address": {
            "type": "string",
            "nullable": true
          },
          "PaymentMethodId": {
            "type": "string",
            "format": "guid",
            "nullable": true
          },
          "CustomerId": {
            "type": "string",
            "format": "guid",
            "nullable": true
          }
        }
      },
      "OrderUpdateRequest": {
        "type": "object",
        "additionalProperties": false,
        "properties": {
          "Number": {
            "type": "string",
            "nullable": true
          },
          "PaymentMethodId": {
            "type": "string",
            "format": "guid",
            "nullable": true
          },
          "Status": {
            "$ref": "#/components/schemas/OrderStatus"
          },
          "Address": {
            "type": "string",
            "nullable": true
          }
        }
      },
      "PageResponseOfPaymentMethodResponse": {
        "type": "object",
        "additionalProperties": false,
        "properties": {
          "Items": {
            "type": "array",
            "items": {
              "$ref": "#/components/schemas/PaymentMethodResponse"
            }
          },
          "Total": {
            "type": "integer",
            "format": "int32"
          }
        }
      },
      "PaymentMethodCreateRequest": {
        "type": "object",
        "additionalProperties": false,
        "properties": {
          "Name": {
            "type": "string",
            "nullable": true
          }
        }
      },
      "PaymentMethodUpdateRequest": {
        "type": "object",
        "additionalProperties": false,
        "properties": {
          "Name": {
            "type": "string",
            "nullable": true
          }
        }
      },
      "PageResponseOfProductResponse": {
        "type": "object",
        "additionalProperties": false,
        "properties": {
          "Items": {
            "type": "array",
            "items": {
              "$ref": "#/components/schemas/ProductResponse"
            }
          },
          "Total": {
            "type": "integer",
            "format": "int32"
          }
        }
      },
      "ProductCreateRequest": {
        "type": "object",
        "additionalProperties": false,
        "properties": {
          "Name": {
            "type": "string",
            "nullable": true
          },
          "Price": {
            "type": "number",
            "format": "decimal",
            "nullable": true
          },
          "Description": {
            "type": "string",
            "nullable": true
          }
        }
      },
      "ProductUpdateRequest": {
        "type": "object",
        "additionalProperties": false,
        "properties": {
          "Name": {
            "type": "string",
            "nullable": true
          },
          "Price": {
            "type": "number",
            "format": "decimal",
            "nullable": true
          },
          "Description": {
            "type": "string",
            "nullable": true
          }
        }
      }
    }
  }
}